Top MBA Programs by US News
…
That’s enough data cleaning, but adding a variable to segment or classify the schools into brackets of ten could be useful when visualizing them in terms of rank and tuition cost later.

USNEWS_MBAS <- USNEWS_MBAS %>%
  mutate(Tier = cut(Rank, breaks = seq(0, 400, by = 10))) %>%
  mutate(Tier = str_replace(Tier, ",", "-")) %>% 
  mutate(Tier = str_replace_all(Tier, "[^0-9-]", ""))

##Convert intervals into factors  

USNEWS_MBAS$Tier <- factor(USNEWS_MBAS$Tier, levels = c("0-10", "10-20", "20-30", "30-40", "40-50", "50-60", "60-70", "70-80", "80-90", "90-100", "Out of Top 100"))

USNEWS_MBAS %>%
  select(University, City, State, Tuition, Rank, Tier, Links)

## # A tibble: 475 x 7
##    University        City   State Tuition  Rank Tier  Links               
##    <chr>             <chr>  <chr>   <int> <int> <fct> <chr>               
##  1 Harvard Universi… Boston " MA"   72000     1 0-10  www.usnews.com/best…
##  2 University of Ch… Chica… " IL"   69200     2 0-10  www.usnews.com/best…
##  3 University of Pe… Phila… " PA"   70200     3 0-10  www.usnews.com/best…
##  4 Stanford Univers… Stanf… " CA"   68868     4 0-10  www.usnews.com/best…
##  5 Massachusetts In… Cambr… " MA"   71000     5 0-10  www.usnews.com/best…
##  6 Northwestern Uni… Evans… " IL"   68955     6 0-10  www.usnews.com/best…
##  7 University of Ca… Berke… " CA"   58794     7 0-10  www.usnews.com/best…
##  8 University of Mi… Ann A… " MI"   62300     8 0-10  www.usnews.com/best…
##  9 Columbia Univers… New Y… " NY"   71544     9 0-10  www.usnews.com/best…
## 10 Dartmouth Colleg… Hanov… " NH"   68910    10 0-10  www.usnews.com/best…
## # ... with 465 more rows
…
